; _____________________________________
;|   ________   ___________________    |
;|  |        | |                   |   |
;|  |   ___  | |___________     ___|   |
;|  |  |  |__|  ________   |   |       |
;|  |  |       |   __   |  |   |       |
;|  |  |_____  |  |  |  |  |   |       |
;|  |______  | |  |  |__|  |   |       |
;|   __    | | |  |        |   |       |
;|  |  |___| | |  |_____   |   |       |
;|  |________| |________|  |___|       |
;|                                     |
;|            home of secret reversers |
;|_____________________________________|
; Concatenate2Str2 Uygulamasi Taslagi
; _______________________________________________________________________________
; Yazar     : BlueDeviL <bluedevil@sctzine.com>
; Tester    : ErrorInside <errorinside@sctzine.com>
; IDE       : RADAssembler v2.2.2.2 <http://masm32.com/board/index.php?board=24.0>
; Taslak    : BlueDeviL // SCT
; Tarih     : 05.05.2017
; Lisans    : MIT
; _______________________________________________________________________________
;                                                                 www.sctzine.com
;                                           oldurmeyen her darbe, guce guc katar!

->  16.05.2017  Concatenate2Str2

    Esenlikler! Bu da daha once paylastigim ornegin ikincisi. Farkli bir yaklasim.
    BlueDeviL // SCT
